Compiling C:\Users\ryuse\OneDrive\デスクトップ\CW\CWTest 20210817\COM_PIC_FM_JP on 17-8-21 at 16:28
>>> Warning 216 "C:\Users\ryuse\OneDrive\デスクトップ\CW\CWTest 20210817\COM_PIC_FM_JP.c" Line 130(1,2): Interrupts disabled during call to prevent re-entrancy:  (@DIV88)
>>> Warning 202 "C:\Users\ryuse\OneDrive\デスクトップ\CW\CWTest 20210817\COM_PIC_FM_JP.h" Line 18(16,26): Variable never used:   RSSI_VALUE
>>> Warning 202 "C:\Users\ryuse\OneDrive\デスクトップ\CW\CWTest 20210817\COM_PIC_FM_JP.h" Line 20(16,28): Variable never used:   auto_address
>>> Warning 202 "C:\Users\ryuse\OneDrive\デスクトップ\CW\CWTest 20210817\COM_PIC_FM_JP.h" Line 21(16,25): Variable never used:   Data_size
>>> Warning 202 "C:\Users\ryuse\OneDrive\デスクトップ\CW\CWTest 20210817\COM_PIC_FM_JP.h" Line 22(15,23): Variable never used:   rcv_byte
>>> Warning 202 "C:\Users\ryuse\OneDrive\デスクトップ\CW\CWTest 20210817\COM_PIC_FM_JP.h" Line 23(16,30): Variable never used:   packets_number
>>> Warning 202 "C:\Users\ryuse\OneDrive\デスクトップ\CW\CWTest 20210817\COM_PIC_FM_JP.h" Line 25(15,24): Variable never used:   pckt_size
>>> Warning 202 "C:\Users\ryuse\OneDrive\デスクトップ\CW\CWTest 20210817\PACKET_CODE_JP.c" Line 261(15,24): Variable never used:   Data_pckt
>>> Warning 202 "C:\Users\ryuse\OneDrive\デスクトップ\CW\CWTest 20210817\CW_JP.c" Line 494(15,18): Variable never used:   HK1
>>> Warning 202 "C:\Users\ryuse\OneDrive\デスクトップ\CW\CWTest 20210817\CW_JP.c" Line 494(22,25): Variable never used:   HK2
>>> Warning 202 "C:\Users\ryuse\OneDrive\デスクトップ\CW\CWTest 20210817\CW_JP.c" Line 494(28,31): Variable never used:   HK3
>>> Warning 202 "C:\Users\ryuse\OneDrive\デスクトップ\CW\CWTest 20210817\CW_JP.c" Line 494(34,37): Variable never used:   HK4
>>> Warning 202 "C:\Users\ryuse\OneDrive\デスクトップ\CW\CWTest 20210817\CW_JP.c" Line 494(40,43): Variable never used:   HK5
>>> Warning 202 "C:\Users\ryuse\OneDrive\デスクトップ\CW\CWTest 20210817\CW_JP.c" Line 494(46,49): Variable never used:   HK6
>>> Warning 202 "C:\Users\ryuse\OneDrive\デスクトップ\CW\CWTest 20210817\CW_JP.c" Line 494(52,55): Variable never used:   HK7
>>> Warning 202 "C:\Users\ryuse\OneDrive\デスクトップ\CW\CWTest 20210817\CW_JP.c" Line 494(58,61): Variable never used:   HK8
>>> Warning 202 "C:\Users\ryuse\OneDrive\デスクトップ\CW\CWTest 20210817\CW_JP.c" Line 494(64,67): Variable never used:   HK9
>>> Warning 202 "C:\Users\ryuse\OneDrive\デスクトップ\CW\CWTest 20210817\CW_JP.c" Line 494(70,74): Variable never used:   HK10
>>> Warning 202 "C:\Users\ryuse\OneDrive\デスクトップ\CW\CWTest 20210817\COM_PIC_FM_JP.c" Line 15(5,15): Variable never used:   auto_flag1
>>> Warning 202 "C:\Users\ryuse\OneDrive\デスクトップ\CW\CWTest 20210817\COM_PIC_FM_JP.c" Line 16(5,11): Variable never used:   counti
>>> Warning 202 "C:\Users\ryuse\OneDrive\デスクトップ\CW\CWTest 20210817\COM_PIC_FM_JP.c" Line 73(5,8): Variable never used:   cmd
      Memory usage:   ROM=6%      RAM=13% - 14%
      0 Errors,  21 Warnings.
Build Successful.
