CCS PCM C Compiler, Version 5.104, 57077               03-9-21 17:10

               Filename:   C:\Users\ryuse\OneDrive\デスクトップ\衛星　COM\CMDTest\CMDTest 20210903\COM_PIC_FM_JP.lst

               ROM used:   272 words (2%)
                           Largest free fragment is 2048
               RAM used:   13 (1%) at main() level
                           27 (1%) worst case
               Stack used: 0 locations
               Stack size: 16

*
0000:  MOVLP  00
0001:  GOTO   0C8
0002:  NOP
.................... #include <16F1789.h>
.................... //////////// Standard Header file for the PIC16F1789 device ////////////////
.................... ///////////////////////////////////////////////////////////////////////////
.................... ////        (C) Copyright 1996, 2020 Custom Computer Services          ////
.................... //// This source code may only be used by licensed users of the CCS C  ////
.................... //// compiler.  This source code may only be distributed to other      ////
.................... //// licensed users of the CCS C compiler.  No other use, reproduction ////
.................... //// or distribution is permitted without written permission.          ////
.................... //// Derivative programs created using this software in object code    ////
.................... //// form are not restricted in any way.                               ////
.................... ///////////////////////////////////////////////////////////////////////////
.................... #device PIC16F1789
0003:  DATA C7,29
0004:  DATA A0,34
0005:  DATA 6E,3A
0006:  DATA E5,33
0007:  DATA F2,30
0008:  DATA F4,34
0009:  DATA 6F,37
000A:  DATA 20,3A
000B:  DATA E5,39
000C:  DATA F4,18
000D:  DATA A0,39
000E:  DATA F4,30
000F:  DATA 72,3A
0010:  DATA 20,05
0011:  DATA 0D,00
*
0029:  MOVF   0B,W
002A:  BCF    0B.7
002B:  MOVLB  03
002C:  BSF    15.7
002D:  BSF    15.0
002E:  NOP
002F:  NOP
0030:  BTFSC  09.7
0031:  BSF    0B.7
0032:  MOVF   13,W
0033:  ANDLW  7F
0034:  BTFSC  03.2
0035:  GOTO   077
0036:  MOVLB  00
0037:  MOVWF  28
0038:  MOVLB  03
0039:  MOVF   11,W
003A:  MOVLB  00
003B:  MOVWF  29
003C:  MOVLB  03
003D:  MOVF   12,W
003E:  MOVLB  00
003F:  MOVWF  2A
0040:  MOVF   28,W
0041:  BTFSS  11.4
0042:  GOTO   041
0043:  MOVLB  03
0044:  MOVWF  1A
0045:  MOVLB  00
0046:  MOVF   29,W
0047:  MOVLB  03
0048:  MOVWF  11
0049:  MOVLB  00
004A:  MOVF   2A,W
004B:  MOVLB  03
004C:  MOVWF  12
004D:  MOVF   0B,W
004E:  BCF    0B.7
004F:  BSF    15.7
0050:  BSF    15.0
0051:  NOP
0052:  NOP
0053:  BTFSC  09.7
0054:  BSF    0B.7
0055:  RLF    13,W
0056:  RLF    14,W
0057:  ANDLW  7F
0058:  BTFSC  03.2
0059:  GOTO   077
005A:  MOVLB  00
005B:  MOVWF  28
005C:  MOVLB  03
005D:  MOVF   11,W
005E:  MOVLB  00
005F:  MOVWF  29
0060:  MOVLB  03
0061:  MOVF   12,W
0062:  MOVLB  00
0063:  MOVWF  2A
0064:  MOVF   28,W
0065:  BTFSS  11.4
0066:  GOTO   065
0067:  MOVLB  03
0068:  MOVWF  1A
0069:  MOVLB  00
006A:  MOVF   29,W
006B:  MOVLB  03
006C:  MOVWF  11
006D:  MOVLB  00
006E:  MOVF   2A,W
006F:  MOVLB  03
0070:  MOVWF  12
0071:  INCF   11,F
0072:  BTFSC  03.2
0073:  INCF   12,F
0074:  MOVLB  00
0075:  GOTO   029
0076:  MOVLB  03
0077:  MOVLP  00
0078:  MOVLB  00
0079:  GOTO   0FA (RETURN)
*
00A0:  BTFSC  28.7
00A1:  GOTO   0B5
00A2:  MOVLW  0F
00A3:  MOVWF  77
00A4:  SWAPF  27,W
00A5:  ANDWF  77,F
00A6:  MOVLW  0A
00A7:  SUBWF  77,W
00A8:  BTFSC  03.0
00A9:  GOTO   0AD
00AA:  MOVLW  30
00AB:  ADDWF  77,F
00AC:  GOTO   0AF
00AD:  MOVF   28,W
00AE:  ADDWF  77,F
00AF:  MOVF   77,W
00B0:  BTFSS  11.4
00B1:  GOTO   0B0
00B2:  MOVLB  03
00B3:  MOVWF  1A
00B4:  MOVLB  00
00B5:  MOVLW  0F
00B6:  ANDWF  27,F
00B7:  MOVLW  0A
00B8:  SUBWF  27,W
00B9:  BTFSC  03.0
00BA:  GOTO   0BD
00BB:  MOVLW  30
00BC:  GOTO   0BF
00BD:  BCF    28.7
00BE:  MOVF   28,W
00BF:  ADDWF  27,F
00C0:  MOVF   27,W
00C1:  BTFSS  11.4
00C2:  GOTO   0C1
00C3:  MOVLB  03
00C4:  MOVWF  1A
00C5:  MOVLP  00
00C6:  MOVLB  00
00C7:  GOTO   102 (RETURN)
.................... 
.................... #list
.................... 
.................... BYTE next_in = 0;
.................... int t;
.................... #device adc=16
.................... //#fuses NOMCLR,WDT,NOPUT,NOBROWNOUT
.................... #use delay(oscillator=16mhz)
*
0012:  MOVLW  20
0013:  MOVWF  05
0014:  MOVLW  08
0015:  MOVWF  04
0016:  MOVF   00,W
0017:  BTFSC  03.2
0018:  GOTO   027
0019:  MOVLW  05
001A:  MOVWF  78
001B:  CLRF   77
001C:  DECFSZ 77,F
001D:  GOTO   01C
001E:  DECFSZ 78,F
001F:  GOTO   01B
0020:  MOVLW  2E
0021:  MOVWF  77
0022:  DECFSZ 77,F
0023:  GOTO   022
0024:  GOTO   025
0025:  DECFSZ 00,F
0026:  GOTO   019
0027:  MOVLP  00
0028:  GOTO   0F1 (RETURN)
.................... //#include <COMPICREG.h>                                                           // com pic registers header
.................... #include <COM_PIC_FM_JP.h>                                                     // com main header file
.................... /* Thiaaaaaas file contains everything related to compic functions and compic settings
....................    ,compic comuniction ports
.................... */
.................... 
.................... //_______________________________________________________________________________________________________________
.................... #use rs232(baud=9600, parity=N, xmit=PIN_B7, rcv=PIN_B6, bits=8, stream=PORT1)    //PC reading port
*
007A:  MOVLB  01
007B:  BSF    0D.6
007C:  MOVLB  00
007D:  BTFSC  0D.6
007E:  GOTO   07D
007F:  MOVLW  08
0080:  MOVWF  77
0081:  CLRF   27
0082:  BSF    77.7
0083:  GOTO   092
0084:  BCF    77.7
0085:  GOTO   092
0086:  BCF    03.0
0087:  BTFSC  0D.6
0088:  BSF    03.0
0089:  RRF    27,F
008A:  BSF    77.6
008B:  GOTO   092
008C:  BCF    77.6
008D:  DECFSZ 77,F
008E:  GOTO   086
008F:  MOVF   27,W
0090:  MOVWF  78
0091:  GOTO   09E
0092:  MOVLW  84
0093:  BTFSC  77.7
0094:  MOVLW  24
0095:  MOVWF  78
0096:  DECFSZ 78,F
0097:  GOTO   096
0098:  GOTO   099
0099:  BTFSC  77.7
009A:  GOTO   084
009B:  BTFSC  77.6
009C:  GOTO   08C
009D:  GOTO   086
009E:  MOVLP  00
009F:  GOTO   0FB (RETURN)
.................... //_______________________________________________________________________________________________________________
.................... #use rs232(uart1,baud=115200, parity=N, bits=8, stream=TR_CP)                      //UART________TRX 
.................... 
.................... #use rs232(baud=4800, parity=N, xmit=PIN_B3, rcv=PIN_B4, bits=8, stream=RP_CP, ERRORS)    //UART________RESET-PIC
.................... #use rs232(baud=9600, parity=N, xmit=PIN_B1, rcv=PIN_B2, bits=8, stream=MP_CP, ERRORS)    //UART________MAIN-PIC   
.................... 
.................... 
.................... 
.................... #fuses HS,NOWDT,NOPROTECT,PUT,BROWNOUT,NOLVP
.................... 
.................... 
.................... void main(void)
*
00C8:  CLRF   20
00C9:  MOVLB  01
00CA:  BCF    0D.7
00CB:  MOVLB  02
00CC:  BSF    0D.7
00CD:  MOVLB  03
00CE:  BSF    1F.3
00CF:  MOVLW  22
00D0:  MOVWF  1B
00D1:  MOVLW  00
00D2:  MOVWF  1C
00D3:  MOVLW  A6
00D4:  MOVWF  1E
00D5:  MOVLW  90
00D6:  MOVWF  1D
00D7:  MOVLB  01
00D8:  BCF    0D.3
00D9:  MOVLB  02
00DA:  BSF    0D.3
00DB:  MOVLB  01
00DC:  BCF    0D.1
00DD:  MOVLB  02
00DE:  BSF    0D.1
00DF:  MOVLB  00
00E0:  CLRF   23
00E1:  CLRF   22
00E2:  MOVLB  03
00E3:  CLRF   0C
00E4:  CLRF   0D
00E5:  CLRF   0E
00E6:  CLRF   0F
00E7:  CLRF   10
00E8:  MOVLB  02
00E9:  CLRF   12
00EA:  CLRF   11
.................... {
.................... delay_ms(1000);                                                               // Just delay before start
00EB:  MOVLW  04
00EC:  MOVLB  00
00ED:  MOVWF  27
00EE:  MOVLW  FA
00EF:  MOVWF  28
00F0:  GOTO   012
00F1:  DECFSZ 27,F
00F2:  GOTO   0EE
.................... /*delay_ms(30000);
.................... delay_ms(30000);*/
.................... fprintf(TR_CP,"GS integration test1 start \n\r");                                                                     // Reception mode activated
00F3:  MOVLW  03
00F4:  MOVLB  03
00F5:  MOVWF  11
00F6:  MOVLW  00
00F7:  MOVWF  12
00F8:  MOVLB  00
00F9:  GOTO   029
.................... int i,j;
.................... unsigned char cmd;
....................     While(true)
....................    { 
....................     /*
....................     for(i = 1;i >= 14;i++)
....................     {
....................     cmd = fgetc(PORT1);
....................     fprintf(TR_CP,"%x\n",cmd);
....................     }*/
....................     cmd = fgetc(PORT1);
00FA:  GOTO   07A
00FB:  MOVF   78,W
00FC:  MOVWF  26
....................     fprintf(TR_CP,"%x\n\r",cmd);
00FD:  MOVF   26,W
00FE:  MOVWF  27
00FF:  MOVLW  57
0100:  MOVWF  28
0101:  GOTO   0A0
0102:  MOVLW  0A
0103:  BTFSS  11.4
0104:  GOTO   103
0105:  MOVLB  03
0106:  MOVWF  1A
0107:  MOVLW  0D
0108:  MOVLB  00
0109:  BTFSS  11.4
010A:  GOTO   109
010B:  MOVLB  03
010C:  MOVWF  1A
010D:  MOVLB  00
010E:  GOTO   0FA
....................    }                                                                             //while loop finish here
.................... }
.................... 
010F:  SLEEP
.................... 

Configuration Fuses:
   Word  1: 3FC2   HS NOWDT PUT MCLR NOPROTECT NOCPD BROWNOUT NOCLKOUT IESO FCMEN
   Word  2: 1EFF   NOWRT NOVCAP PLL_SW STVREN BORV19 NOLPBOR NODEBUG NOLVP
