004-005 @WRITE_PROGRAM_MEMORY8.P1
004-005 @READ_PACKED_MEMORY.P2
004-005 @WRITE_PACKED_MEMORY.P3
004-005 @READ_PROGRAM_MEMORY8.P4
006-007 @WRITE_PACKED_MEMORY.P1
006-007 @READ_PACKED_MEMORY.P2
00C     PORTA
00C.0   RA0
00C.1   RA1
00C.2   RA2
00C.3   RA3
00C.4   RA4
00C.5   RA5
00C.6   RA6
00C.7   RA7
00D     PORTB
00D.0   RB0
00D.1   RB1
00D.2   RB2
00D.3   RB3
00D.4   RB4
00D.5   RB5
00D.6   RB6
00D.7   RB7
00E.0   RC0
00E     PORTC
00E.1   RC1
00E.2   RC2
00E.3   RC3
00E.4   RC4
00E.5   RC5
00E.6   RC6
00E.7   RC7
00F     PORTD
00F.0   RD0
00F.1   CW
00F.2   RD2
00F.3   RD3
00F.4   RD4
00F.5   RD5
00F.6   RD6
00F.7   RD7
010     PORTE
011     PIR1
011.5   bit5
018     T1CON
018.0   TMR1ON
018.2   T1SYNC
018.3   T1OSCEN
018.4   T1CKPS0
018.5   T1CKPS1
018.6   TMR1CS0
018.7   TMR1CS1
020     @INTERRUPT_AREA
021     @INTERRUPT_AREA
022     @INTERRUPT_AREA
023     @INTERRUPT_AREA
024     @INTERRUPT_AREA
025     @INTERRUPT_AREA
026     @INTERRUPT_AREA
027     @INTERRUPT_AREA
028     next_in
029     t
02A-037 CMD_pckt
038     ib
039-049 buffer
04A-069 Ack_pckt
06A-06F,0A0-0EF,120-132 Data_pckt
070     sat_id
071     MBI
072     auto_flag1
073     counti
077     @SCRATCH
078     @SCRATCH
078     _RETURN_
079     @SCRATCH
07A     @SCRATCH
07F     @INTERRUPT_AREA
08C.0   TRISA0
08C     TRISA
08C.1   TRISA1
08C.2   TRISA2
08C.3   TRISA3
08C.4   TRISA4
08C.5   TRISA5
08C.6   TRISA6
08C.7   TRISA7
08D.0   TRISB0
08D     TRISB
08D.1   TRISB1
08D.2   TRISB2
08D.3   TRISB3
08D.4   TRISB4
08D.5   TRISB5
08D.6   TRISB6
08D.7   TRISB7
08E.0   TRISC0
08E     TRISC
08E.1   TRISC1
08E.2   TRISC2
08E.3   TRISC3
08E.4   TRISC4
08E.5   TRISC5
08E.6   TRISC6
08E.7   TRISC7
08F.0   TRISD0
08F     TRISD
08F.1   TRISD1
08F.2   TRISD2
08F.3   TRISD3
08F.4   TRISD4
08F.5   TRISD5
08F.6   TRISD6
08F.7   TRISD7
090     TRISE
0FF     @INTERRUPT_AREA
10C     LATA
10C.0   LATA0
10C.1   LATA1
10C.2   LATA2
10C.3   LATA3
10C.4   LATA4
10C.5   LATA5
10C.6   LATA6
10C.7   LATA7
10D     LATB
10D.0   LATB0
10D.1   LATB1
10D.2   LATB2
10D.3   LATB3
10D.4   LATB4
10D.5   LATB5
10D.6   LATB6
10D.7   LATB7
10E.0   LATC0
10E     LATC
10E.1   LATC1
10E.2   LATC2
10E.3   LATC3
10E.4   LATC4
10E.5   LATC5
10E.6   LATC6
10E.7   LATC7
10F.0   LATD0
10F     LATD
10F.1   LATD1
10F.2   LATD2
10F.3   LATD3
10F.4   LATD4
10F.5   LATD5
10F.6   LATD6
10F.7   LATD7
111.6   C1OUT
113.6   C2OUT
11A.6   C4OUT
11E.6   C3OUT
133-134 cr
135-136 pk
137-146 COM_TO_MAIN
147-15E MAIN_TO_COM
15F-162 num
163-164 @sprintf_string
165     MAIN.cmd
166     R_Send_a_Packet.x
166     @GETCH_1_.@SCRATCH1
166     MAIN.@SCRATCH1
167-16A R_Send_a_Packet.start_address
167     @PSTRINGC7_9600_118_119.@SCRATCH1
168     @PSTRINGC7_9600_118_119.@SCRATCH2
169     @PSTRINGC7_9600_118_119.@SCRATCH3
16B-16E R_Send_a_Packet.pckt
16F     R_Send_a_Packet.ia
17F     @INTERRUPT_AREA
191-192 @READ_PROGRAM_MEMORY8.P1
191-192 @WRITE_PROGRAM_MEMORY8.P2
199     RCREG
1A0-1A1 R_Send_a_Packet.outdata
1A2     R_Send_a_Packet.@SCRATCH1
1A3-1A4 mk_CRC.data
1A3     @delay_ms1.P1
1A5     mk_CRC.data_number
1A6-1A9 mk_CRC.crcReg
1AA-1AD mk_CRC.calc
1AE     mk_CRC.w
1AF-1B2 mk_CRC.i
1B3-1B6 mk_CRC.k
1B7-1EF,220-24B mk_CRC.cal_data
1FF     @INTERRUPT_AREA
24C     mk_CRC.@SCRATCH1
24D     mk_CRC.@SCRATCH2
24E     mk_CRC.@SCRATCH3
24F     mk_CRC.@SCRATCH4
250     serial_isr.@SCRATCH1
251     serial_isr.@SCRATCH2
252     @DIV88.P1
253     @DIV88.P1
254     @DIV88.@SCRATCH1
27F     @INTERRUPT_AREA
291     CCP_1_LOW
291     CCP_1
292     CCP_1_HIGH
298     CCP_2
298     CCP_2_LOW
299     CCP_2_HIGH
2FF     @INTERRUPT_AREA
311     CCP_3
311     CCP_3_LOW
312     CCP_3_HIGH
37F     @INTERRUPT_AREA
3FF     @INTERRUPT_AREA
47F     @INTERRUPT_AREA
4FF     @INTERRUPT_AREA
57F     @INTERRUPT_AREA
5FF     @INTERRUPT_AREA
67F     @INTERRUPT_AREA
6FF     @INTERRUPT_AREA
77F     @INTERRUPT_AREA
7FF     @INTERRUPT_AREA
87F     @INTERRUPT_AREA
8FF     @INTERRUPT_AREA
97F     @INTERRUPT_AREA
9FF     @INTERRUPT_AREA
A7F     @INTERRUPT_AREA
AFF     @INTERRUPT_AREA
B7F     @INTERRUPT_AREA
BFF     @INTERRUPT_AREA
C7F     @INTERRUPT_AREA
CFF     @INTERRUPT_AREA
D7F     @INTERRUPT_AREA
DFF     @INTERRUPT_AREA
E7F     @INTERRUPT_AREA
EFF     @INTERRUPT_AREA
F7F     @INTERRUPT_AREA
FFF     @INTERRUPT_AREA
107F     @INTERRUPT_AREA
10FF     @INTERRUPT_AREA
117F     @INTERRUPT_AREA
11FF     @INTERRUPT_AREA
127F     @INTERRUPT_AREA
12FF     @INTERRUPT_AREA
137F     @INTERRUPT_AREA
13FF     @INTERRUPT_AREA
147F     @INTERRUPT_AREA
14FF     @INTERRUPT_AREA
157F     @INTERRUPT_AREA
15FF     @INTERRUPT_AREA
167F     @INTERRUPT_AREA
16FF     @INTERRUPT_AREA
177F     @INTERRUPT_AREA
17FF     @INTERRUPT_AREA
187F     @INTERRUPT_AREA
18FF     @INTERRUPT_AREA
197F     @INTERRUPT_AREA
19FF     @INTERRUPT_AREA
1A7F     @INTERRUPT_AREA
1AFF     @INTERRUPT_AREA
1B7F     @INTERRUPT_AREA
1BFF     @INTERRUPT_AREA
1C7F     @INTERRUPT_AREA
1CFF     @INTERRUPT_AREA
1D7F     @INTERRUPT_AREA
1DFF     @INTERRUPT_AREA
1E7F     @INTERRUPT_AREA
1EFF     @INTERRUPT_AREA
1F7F     @INTERRUPT_AREA
1FFF     @INTERRUPT_AREA

ROM Allocation:
000041  serial_isr
000058  @DIV88
000072  @const1084.call
000076  @const1089.call
000079  @PSTRINGC7_9600_118_119
0000CB  settings
0000F3  @delay_ms1
000109  RX_ON
000120  @GETCH_1_
00014C  R_Send_a_Packet
0001AA  mk_CRC
000276  @PUTCHARI_BIU_2
000285  @cinit1
000285  MAIN
0002B2  @cinit2

Project Directory:
    C:\Users\ryuse\OneDrive\デスクトップ\衛星　COM\GMSKTest\GMSKTest 20210824\

Project Files:
    COM_PIC_FM_JP.c                                         [24-8-21 17:01  CRC=AE3C78FB]
    ..\..\..\..\..\..\..\Program Files (x86)\PICC\Devices\16F1789.h [13-5-21 13:48  CRC=CCE282A9]
    COMPICREG.h                                             [04-8-21 17:15  CRC=16F3C9A7]
    COM_PIC_FM_JP.h                                         [24-8-21 12:11  CRC=1A8D3B4E]
    COMPIC_FUN.c                                            [13-8-21 16:22  CRC=6BCFD04F]
    PACKET_CODE_JP.c                                        [23-8-21 15:33  CRC=75AB6B8E]

Source signature=03C6A804
Program memory checksum=0000
Hex file CRC=5F9D

Units:
    C:\Users\ryuse\OneDrive\デスクトップ\衛星　COM\GMSKTest\GMSKTest 20210824\COM_PIC_FM_JP (main)

Compiler Settings:
    Processor:      PIC16F1789
    Pointer Size:   16
    ADC Range:      0-65535
    Opt Level:      9
    Short,Int,Long: UNSIGNED: 1,8,16
    Float,Double:   32,32
    Enhanced 16:    Yes
    Compile Mode:   CCS5

Output Files:
    XREF file:   COM_PIC_FM_JP.xsym
    Errors:      COM_PIC_FM_JP.err
    Ext Symbols: COM_PIC_FM_JP.esym
    INHX8:       COM_PIC_FM_JP.hex
    Symbols:     COM_PIC_FM_JP.sym
    List:        COM_PIC_FM_JP.lst
    Debug/COFF:  COM_PIC_FM_JP.cof
    Project:     COM_PIC_FM_JP.ccspjt
    Call Tree:   COM_PIC_FM_JP.tre
    Statistics:  COM_PIC_FM_JP.STA
