004-005 @READ_PACKED_MEMORY.P1
004-005 @WRITE_PROGRAM_MEMORY8.P2
004-005 @READ_PROGRAM_MEMORY8.P3
004-005 @WRITE_PACKED_MEMORY.P4
006-007 @READ_PACKED_MEMORY.P1
006-007 @WRITE_PACKED_MEMORY.P2
00C     PORTA
00C.0   RA0
00C.1   RA1
00C.2   RA2
00C.3   RA3
00C.4   RA4
00C.5   RA5
00C.6   RA6
00C.7   RA7
00D     PORTB
00D.0   RB0
00D.1   RB1
00D.2   RB2
00D.3   RB3
00D.4   RB4
00D.5   RB5
00D.6   RB6
00D.7   RB7
00E.0   RC0
00E     PORTC
00E.1   RC1
00E.2   RC2
00E.3   RC3
00E.4   RC4
00E.5   RC5
00E.6   RC6
00E.7   RC7
00F     PORTD
00F.0   RD0
00F.1   CW
00F.2   RD2
00F.3   RD3
00F.4   RD4
00F.5   RD5
00F.6   RD6
00F.7   RD7
010     PORTE
011     PIR1
011.5   bit5
018.0   TMR1ON
018     T1CON
018.2   T1SYNC
018.3   T1OSCEN
018.4   T1CKPS0
018.5   T1CKPS1
018.6   TMR1CS0
018.7   TMR1CS1
020     @INTERRUPT_AREA
021     @INTERRUPT_AREA
022     @INTERRUPT_AREA
023     @INTERRUPT_AREA
024     @INTERRUPT_AREA
025     @INTERRUPT_AREA
026     @INTERRUPT_AREA
027     @INTERRUPT_AREA
028     next_in
029     t
02A-02B RSSI_VALUE
02C-02F auto_address
030-033 Data_size
034     rcv_byte
035-038 packets_number
039     pckt_size
03A-047 CMD_pckt
048     ib
049-059 buffer
05A-06F,0A0-0A9 Ack_pckt
070     sat_id
071     MBI
072     HK1
073     HK2
074     HK3
075     HK4
076     HK5
077     @SCRATCH
078     @SCRATCH
078     _RETURN_
079     @SCRATCH
07A     @SCRATCH
07B     HK6
07C     HK7
07D     HK8
07E     HK9
07F     @INTERRUPT_AREA
08C     TRISA
08C.0   TRISA0
08C.1   TRISA1
08C.2   TRISA2
08C.3   TRISA3
08C.4   TRISA4
08C.5   TRISA5
08C.6   TRISA6
08C.7   TRISA7
08D     TRISB
08D.0   TRISB0
08D.1   TRISB1
08D.2   TRISB2
08D.3   TRISB3
08D.4   TRISB4
08D.5   TRISB5
08D.6   TRISB6
08D.7   TRISB7
08E     TRISC
08E.0   TRISC0
08E.1   TRISC1
08E.2   TRISC2
08E.3   TRISC3
08E.4   TRISC4
08E.5   TRISC5
08E.6   TRISC6
08E.7   TRISC7
08F.0   TRISD0
08F     TRISD
08F.1   TRISD1
08F.2   TRISD2
08F.3   TRISD3
08F.4   TRISD4
08F.5   TRISD5
08F.6   TRISD6
08F.7   TRISD7
090     TRISE
0AA-0AB @sprintf_string
0AC-0EF,120-144 Data_pckt
0FF     @INTERRUPT_AREA
10C.0   LATA0
10C     LATA
10C.1   LATA1
10C.2   LATA2
10C.3   LATA3
10C.4   LATA4
10C.5   LATA5
10C.6   LATA6
10C.7   LATA7
10D     LATB
10D.0   LATB0
10D.1   LATB1
10D.2   LATB2
10D.3   LATB3
10D.4   LATB4
10D.5   LATB5
10D.6   LATB6
10D.7   LATB7
10E     LATC
10E.0   LATC0
10E.1   LATC1
10E.2   LATC2
10E.3   LATC3
10E.4   LATC4
10E.5   LATC5
10E.6   LATC6
10E.7   LATC7
10F     LATD
10F.0   LATD0
10F.1   LATD1
10F.2   LATD2
10F.3   LATD3
10F.4   LATD4
10F.5   LATD5
10F.6   LATD6
10F.7   LATD7
111.6   C1OUT
113.6   C2OUT
11A.6   C4OUT
11E.6   C3OUT
145-146 cr
147-148 pk
149-158 COM_TO_MAIN
159-16F,1A0-1A0 MAIN_TO_COM
17F     @INTERRUPT_AREA
191-192 @READ_PROGRAM_MEMORY8.P1
191-192 @WRITE_PROGRAM_MEMORY8.P2
199     RCREG
1A1-1A4 num
1A5     HK10
1A6     auto_flag1
1A7     counti
1A8     MAIN.i
1A9-1AC SET_OF_PACKETS_DOWNLOAD.start_adress
1A9     buffer_corection.ih
1A9-1AC SET_OF_PACKETS_DOWNLOAD_WITH_ACCESS.start_adress
1A9-1AC FM_COPY_AND_DATA_DOWN_FROM_CFM.start_adress
1A9     Delay_for_data_downlink.i
1A9     @PSTRINGCN7_959.P1
1A9-1AC FM_COPY_WITH_ACCESS.start_adress
1A9-1AC PACKET_DOWNLOAD.start_adress
1A9-1AA SEND_COM_DATA.tempr
1A9-1AC Data_down_from_SFM_with_access.start_adress
1A9-1AC RSSI_READ.rssi
1A9-1AC LENGTH_DOWNLOAD.start_adress
1A9     sync.delay
1A9-1AC FM_COPY.start_adress
1A9     Send_a_Packet.x
1A9     CW_PCKT.@SCRATCH1
1A9     ONE_PCKT_DOWNLOAD.@SCRATCH1
1A9     CW_SEND_BGSC.@SCRATCH1
1A9     MAIN.@SCRATCH1
1AA     sync.i
1AA-1AD Send_a_Packet.start_address
1AA     buffer_corection.ih
1AA     CW_MSN.@SCRATCH1
1AB     buffer_corection.ih
1AB-1AE SEND_COM_DATA.rssi64
1AB     CW_MSN.@SCRATCH2
1AB     sync.@SCRATCH1
1AB     @PSTRINGCN7_959.@SCRATCH1
1AC     buffer_corection.ih
1AC     CW_LETTER.CWL
1AC     @PSTRINGCN7_959.@SCRATCH2
1AD-1AE FM_COPY_WITH_ACCESS.packet
1AD-1B0 FM_COPY.length
1AD-1AE FM_COPY_AND_DATA_DOWN_FROM_CFM.packet
1AD-1B0 PACKET_DOWNLOAD.pckt_num
1AD-1B0 PCKT_SET_SEND.initial_address
1AD-1AE Data_down_from_SFM_with_access.packet
1AD-1B0 LENGTH_DOWNLOAD.length
1AD     RSSI_READ.lk
1AD     buffer_corection.ih
1AD     SET_OF_PACKETS_DOWNLOAD.@SCRATCH1
1AD     SET_OF_PACKETS_DOWNLOAD_WITH_ACCESS.@SCRATCH1
1AD     @PSTRINGCN7_959.@SCRATCH3
1AE     buffer_corection.i
1AE-1AF RSSI_READ.RSSI1
1AE-1B1 Send_a_Packet.pckt
1AF     SEND_COM_DATA.lk
1AF     Data_down_from_SFM_with_access.@SCRATCH1
1B0-1B1 SEND_NOT_SUCCESS_ACK.outdata
1B0-1B1 @MUL1616.P1
1B0-1B1 SEND_COM_DATA.rssi
1B0     COMUNICATRE_WITH_MAIN_PIC.p
1B0     WAIT_FOR_MAIN_PIC_RESPONSE.@SCRATCH1
1B0     FM_COPY_WITH_ACCESS.@SCRATCH1
1B0     FM_COPY_AND_DATA_DOWN_FROM_CFM.@SCRATCH1
1B1-1B2 SEND_SUCCESS_ACK.outdata
1B1     RX_BFR_ZERO.p
1B1     buffer_ZERO.p
1B1-1B4 Send_Data_Packets.start_address
1B1     PCKT_SET_SEND.packet_set_size
1B1     COMUNICATRE_WITH_MAIN_PIC.time
1B1     buffer_corection.@SCRATCH1
1B1     WAIT_FOR_MAIN_PIC_RESPONSE.@SCRATCH2
1B1     PACKET_DOWNLOAD.@SCRATCH1
1B1     LENGTH_DOWNLOAD.@SCRATCH1
1B1     FM_COPY_WITH_ACCESS.@SCRATCH2
1B1     FM_COPY_AND_DATA_DOWN_FROM_CFM.@SCRATCH2
1B2-1B5 Send_a_Packet.ele_num
1B2-1B3 @MUL1616.P1
1B2     PCKT_SET_SEND.packet_set_num
1B2     SEND_NOT_SUCCESS_ACK.ih
1B2     COMUNICATRE_WITH_MAIN_PIC.ia
1B2-1B5 FLASH_COPY.start_address
1B2-1B3 SEND_COM_DATA.outdata
1B2     RX_BFR_ZERO.@SCRATCH1
1B2     buffer_ZERO.@SCRATCH1
1B2     buffer_corection.@SCRATCH2
1B2     WAIT_FOR_MAIN_PIC_RESPONSE.@SCRATCH3
1B3     PCKT_SET_SEND.FM_SELECT
1B3     SEND_SUCCESS_ACK.ih
1B3     RX_BFR_ZERO.@SCRATCH2
1B3     buffer_ZERO.@SCRATCH2
1B3     SEND_NOT_SUCCESS_ACK.@SCRATCH1
1B3     buffer_corection.@SCRATCH3
1B3     WAIT_FOR_MAIN_PIC_RESPONSE.@SCRATCH4
1B3     COMUNICATRE_WITH_MAIN_PIC.@SCRATCH1
1B4     SEND_COM_DATA.ih
1B4-1B7 PCKT_SET_SEND.next_size
1B4     @PUTCHAR_4_.P1
1B4     @GETCH_4_.@SCRATCH1
1B4     SEND_SUCCESS_ACK.@SCRATCH1
1B4     @MUL1616.@SCRATCH1
1B5-1B8 Send_Data_Packets.Data_size
1B5     SEND_COM_DATA.@SCRATCH1
1B6-1B9 FLASH_COPY.data_length
1B6-1B9 Send_a_Packet.ele_num
1B8-1BB PCKT_SET_SEND.start_address
1B9-1BC Send_Data_Packets.packets
1BA-1BB Send_a_Packet.outdata
1BA-1BD FLASH_COPY.inc
1BC     Send_a_Packet.ia
1BC-1BF PCKT_SET_SEND.pckt_seq_num
1BD     Send_Data_Packets.x
1BE-1C1 Send_Data_Packets.num_of_pckt
1C0-1C3 CF_SECTOR_ERASE.sector_address
1C0-1C3 PCKT_SET_SEND.ele_num
1C0     FLASH_COPY.@SCRATCH1
1C0     Send_a_Packet.@SCRATCH1
1C1     FLASH_COPY.@SCRATCH2
1C1     Send_a_Packet.@SCRATCH2
1C2-1C5 Send_Data_Packets.pckt_seq_num
1C2     FLASH_COPY.@SCRATCH3
1C2     Send_a_Packet.@SCRATCH3
1C3     FLASH_COPY.@SCRATCH4
1C3     Send_a_Packet.@SCRATCH4
1C4-1C7 PCKT_SET_SEND.ele_num
1C4-1C7 CF_SECTOR_ERASE.adsress
1C4     FLASH_COPY.@SCRATCH5
1C4     Send_a_Packet.@SCRATCH5
1C5-1C8 CF_BYTE_WRITE.byte_address
1C5     FLASH_COPY.@SCRATCH6
1C5     Send_a_Packet.@SCRATCH6
1C6-1C9 Send_Data_Packets.ele_num
1C6     FLASH_COPY.@SCRATCH7
1C6     Send_a_Packet.@SCRATCH7
1C7     FLASH_COPY.@SCRATCH8
1C7     Send_a_Packet.@SCRATCH8
1C8-1C9 PCKT_SET_SEND.outdata
1C8     CF_SECTOR_ERASE.@SCRATCH1
1C9     CF_BYTE_WRITE.data
1C9     CF_SECTOR_ERASE.@SCRATCH2
1CA     PCKT_SET_SEND.ia
1CA-1CD CF_BYTE_WRITE.adsress
1CA-1CD Send_Data_Packets.ele_num
1CA     CF_SECTOR_ERASE.@SCRATCH3
1CB     CF_SECTOR_ERASE.@SCRATCH4
1CC     CF_SECTOR_ERASE.@SCRATCH5
1CE-1CF Send_Data_Packets.outdata
1D0     Send_Data_Packets.ia
1D0     PCKT_SET_SEND.@SCRATCH1
1D1     @MUL88.P1
1D1     PCKT_SET_SEND.@SCRATCH2
1D2     @MUL88.P1
1D2     CF_BYTE_WRITE.@SCRATCH1
1D2     PCKT_SET_SEND.@SCRATCH3
1D3     CF_BYTE_WRITE.@SCRATCH2
1D3     PCKT_SET_SEND.@SCRATCH4
1D4     CF_BYTE_WRITE.@SCRATCH3
1D4     PCKT_SET_SEND.@SCRATCH5
1D5     CF_BYTE_WRITE.@SCRATCH4
1D5     PCKT_SET_SEND.@SCRATCH6
1D6     CF_BYTE_WRITE.@SCRATCH5
1D6     PCKT_SET_SEND.@SCRATCH7
1D7     PCKT_SET_SEND.@SCRATCH8
1D8     @delay_ms1.P1
1D8-1DB @DIV3232.P2
1D8-1D9 mk_CRC.data
1D8     @PSTRINGC7_959.@SCRATCH1
1D8     Send_Data_Packets.@SCRATCH1
1D9     @PRINTF_X_959.P1
1D9     @PSTRINGC7_959.@SCRATCH2
1D9     Send_Data_Packets.@SCRATCH2
1DA     mk_CRC.data_number
1DA     @PRINTF_X_959.P1
1DA     @PSTRINGC7_959.@SCRATCH3
1DA     Send_Data_Packets.@SCRATCH3
1DB-1DE mk_CRC.crcReg
1DB     @PUTCHAR_1_.P1
1DB     Send_Data_Packets.@SCRATCH4
1DC-1DF @DIV3232.P1
1DC     Send_Data_Packets.@SCRATCH5
1DD     Send_Data_Packets.@SCRATCH6
1DE     Send_Data_Packets.@SCRATCH7
1DF-1E2 mk_CRC.calc
1DF     Send_Data_Packets.@SCRATCH8
1E0-1E3 CF_BYTE_READ.address
1E0-1E3 SF_BYTE_READ.address
1E0-1E3 @MUL3232.P1
1E1     @DIV3232.@SCRATCH1
1E2     @DIV3232.@SCRATCH2
1E3     mk_CRC.w
1E3     @DIV3232.@SCRATCH3
1E4-1E7 mk_CRC.i
1E4-1E7 @MUL3232.P1
1E4-1E7 CF_BYTE_READ.adsress
1E4-1E7 SF_BYTE_READ.adsress
1E4     @DIV3232.@SCRATCH4
1E5     @DIV3232.@SCRATCH5
1E8-1EB mk_CRC.k
1E8     CF_BYTE_READ.data
1E8     SF_BYTE_READ.data
1EB     @SPI_XFER_2_8.P1
1EB     @SPI_XFER_1.P2
1EB     CF_BYTE_READ.@SCRATCH1
1EB     SF_BYTE_READ.@SCRATCH1
1EB     @MUL3232.@SCRATCH1
1EC     @SPI_XFER_1.P1
1EC-1EF,220-26F,2A0-2B0 mk_CRC.cal_data
1EC     CF_BYTE_READ.@SCRATCH2
1EC     SF_BYTE_READ.@SCRATCH2
1EC     @MUL3232.@SCRATCH2
1ED     @SPI_XFER_1.P1
1ED     CF_BYTE_READ.@SCRATCH3
1ED     SF_BYTE_READ.@SCRATCH3
1ED     @MUL3232.@SCRATCH3
1EE     @SPI_XFER_1.@SCRATCH1
1EE     CF_BYTE_READ.@SCRATCH4
1EE     SF_BYTE_READ.@SCRATCH4
1EE     @MUL3232.@SCRATCH4
1EF     @SPI_XFER_1.@SCRATCH2
1EF     CF_BYTE_READ.@SCRATCH5
1EF     SF_BYTE_READ.@SCRATCH5
1EF     @MUL3232.@SCRATCH5
1FF     @INTERRUPT_AREA
27F     @INTERRUPT_AREA
291     CCP_1_LOW
291     CCP_1
292     CCP_1_HIGH
298     CCP_2
298     CCP_2_LOW
299     CCP_2_HIGH
2B4     mk_CRC.@SCRATCH1
2B5     mk_CRC.@SCRATCH2
2B6     mk_CRC.@SCRATCH3
2B7     mk_CRC.@SCRATCH4
2BC     serial_isr.@SCRATCH1
2BD     serial_isr.@SCRATCH2
2BE     @DIV88.P1
2BF     @DIV88.P1
2C0     @DIV88.@SCRATCH1
2FF     @INTERRUPT_AREA
311     CCP_3_LOW
311     CCP_3
312     CCP_3_HIGH
37F     @INTERRUPT_AREA
3FF     @INTERRUPT_AREA
47F     @INTERRUPT_AREA
4FF     @INTERRUPT_AREA
57F     @INTERRUPT_AREA
5FF     @INTERRUPT_AREA
67F     @INTERRUPT_AREA
6FF     @INTERRUPT_AREA
77F     @INTERRUPT_AREA
7FF     @INTERRUPT_AREA
87F     @INTERRUPT_AREA
8FF     @INTERRUPT_AREA
97F     @INTERRUPT_AREA
9FF     @INTERRUPT_AREA
A7F     @INTERRUPT_AREA
AFF     @INTERRUPT_AREA
B7F     @INTERRUPT_AREA
BFF     @INTERRUPT_AREA
C7F     @INTERRUPT_AREA
CFF     @INTERRUPT_AREA
D7F     @INTERRUPT_AREA
DFF     @INTERRUPT_AREA
E7F     @INTERRUPT_AREA
EFF     @INTERRUPT_AREA
F7F     @INTERRUPT_AREA
FFF     @INTERRUPT_AREA
107F     @INTERRUPT_AREA
10FF     @INTERRUPT_AREA
117F     @INTERRUPT_AREA
11FF     @INTERRUPT_AREA
127F     @INTERRUPT_AREA
12FF     @INTERRUPT_AREA
137F     @INTERRUPT_AREA
13FF     @INTERRUPT_AREA
147F     @INTERRUPT_AREA
14FF     @INTERRUPT_AREA
157F     @INTERRUPT_AREA
15FF     @INTERRUPT_AREA
167F     @INTERRUPT_AREA
16FF     @INTERRUPT_AREA
177F     @INTERRUPT_AREA
17FF     @INTERRUPT_AREA
187F     @INTERRUPT_AREA
18FF     @INTERRUPT_AREA
197F     @INTERRUPT_AREA
19FF     @INTERRUPT_AREA
1A7F     @INTERRUPT_AREA
1AFF     @INTERRUPT_AREA
1B7F     @INTERRUPT_AREA
1BFF     @INTERRUPT_AREA
1C7F     @INTERRUPT_AREA
1CFF     @INTERRUPT_AREA
1D7F     @INTERRUPT_AREA
1DFF     @INTERRUPT_AREA
1E7F     @INTERRUPT_AREA
1EFF     @INTERRUPT_AREA
1F7F     @INTERRUPT_AREA
1FFF     @INTERRUPT_AREA

ROM Allocation:
000041  @const1040.call
00004A  @const1050.call
000052  @const1071.call
00005C  @const1108.call
000062  @const1195.call
00006E  @const1220.call
00007A  @const1222.call
000082  @const1225.call
00008F  serial_isr
0000A6  @DIV88
0000C0  @const1240.call
0000CF  @const1241.call
0000D3  @const1242.call
0000DF  @const1243.call
0000E3  @const1245.call
0000EF  @const1248.call
0000F4  @const1249.call
0000F9  @const1250.call
000102  @const1251.call
00010B  @const1253.call
000113  @const1254.call
000118  @PUTCHAR_1_
00013E  @PSTRINGC7_959
00017C  settings
0001A8  @delay_ms1
0001BE  RX_ON
0001D4  TRX_RSSI_READ
0001F2  @DIV3232
000241  RSSI_READ
000277  COMUNICATRE_WITH_MAIN_PIC
0002CD  @PUTCHAR_4_
0002F5  WAIT_FOR_MAIN_PIC_RESPONSE
000318  @GETCH_4_
000358  @SPI_XFER_1
000384  CF_WRITE_ENABLE
000398  CF_SECTOR_ERASE
0003FC  @SPI_XFER_2_8
000409  SF_BYTE_READ
000453  CF_BYTE_WRITE
0004B1  FLASH_COPY
000513  TX_ON
000529  @MUL3232
000555  CF_BYTE_READ
0005B7  mk_CRC
000662  @PUTCHARI_BIU_2
000668  @PRINTF_X_959
00068D  RX_BFR_ZERO
0006A0  buffer_ZERO
0006B2  buffer_corection
0007C9  Delay_for_data_downlink
0007E5  DAH
0007F4  CH_SPACE
000800  Send_Data_Packets
000A01  @PSTRINGCN7_959
000A47  SEND_SUCCESS_ACK
000B07  SEND_NOT_SUCCESS_ACK
000B89  sync
000BB0  PACKET_DOWNLOAD
000C39  LENGTH_DOWNLOAD
000CCB  Send_a_Packet
000E55  ONE_PCKT_DOWNLOAD
000E96  Data_down_from_SFM_with_access
000F0B  SET_OF_PACKETS_DOWNLOAD_WITH_ACCESS
000F61  SET_OF_PACKETS_DOWNLOAD
000FD7  DIT
000FEA  CW_B
000FF4  CW_I
001000  PCKT_SET_SEND
001008  @MUL88
0011D0  SEND_COM_TEMP_RSSI_TO_GS
0011D4  SEND_COM_DATA
0011FC  TRX_TEMP_READ
0012BC  FM_COPY_AND_DATA_DOWN_FROM_CFM
0012F1  @MUL1616
00137D  FM_COPY
0013C2  FM_COPY_WITH_ACCESS
001425  GET_SFM_ACCESS_GIVEN_TIME
00145A  CMD_TO_MPIC
0014A9  CW_R
0014B6  CW_D
0014C3  CW_S
0014D0  CW_4
0014E3  CW_J
0014F3  CW_G
001500  CW_6
001513  CW_Y
001523  CW_M
00152D  CW_X
00153D  CW_LETTER
001545  CW_0
001561  CW_1
00157E  CW_2
00159B  CW_3
0015C4  CW_5
0015ED  CW_7
00160A  CW_8
001627  CW_9
001644  CW_A
001666  CW_C
00168C  CW_E
00169D  CW_F
0016BB  CW_H
0016E3  CW_K
0016F6  CW_L
001714  CW_N
001724  CW_O
001737  CW_P
00174D  CW_Q
001773  CW_T
001780  CW_U
001793  CW_V
0017A9  CW_W
0017CC  CW_Z
001800  CW_SEND_BGSC
001804  CW_ON
00181F  CW_PCKT
00182B  CW_BIRDS4
00184A  Call_sign
001869  CW_MSN
0019CB  CW_UPDATE_MISSION
001A41  MAIN
001A41  @cinit1
001A9D  @cinit2

Project Directory:
    C:\Users\ryuse\OneDrive\デスクトップ\衛星　COM\CMDTest\CMDTest 20210907　受信2\

Project Files:
    COM_PIC_FM_JP.c                                         [08-9-21 15:01  CRC=E4F053AE]
    ..\..\..\..\..\..\..\Program Files (x86)\PICC\Devices\16F1789.h [13-5-21 13:48  CRC=CCE282A9]
    COMPICREG.h                                             [26-7-18 00:37  CRC=16F3C9A7]
    COM_PIC_FM_JP.h                                         [07-9-21 12:09  CRC=D3948A83]
    COMPIC_FUN.c                                            [07-6-21 14:12  CRC=0701CDF9]
    COM_FLASH.c                                             [07-6-21 14:11  CRC=5F3A86A9]
    PACKET_CODE_JP.c                                        [08-9-21 13:41  CRC=ABF9778D]
    CW_JP.c                                                 [07-8-20 21:42  CRC=BEA6CBB9]
    CMD_FUN.c                                               [08-9-21 14:45  CRC=216DF614]

Source signature=B013AE91
Program memory checksum=0000
Hex file CRC=91F4

Units:
    C:\Users\ryuse\OneDrive\デスクトップ\衛星　COM\CMDTest\CMDTest 20210907　受信2\COM_PIC_FM_JP (main)

Compiler Settings:
    Processor:      PIC16F1789
    Pointer Size:   16
    ADC Range:      0-65535
    Opt Level:      9
    Short,Int,Long: UNSIGNED: 1,8,16
    Float,Double:   32,32
    Enhanced 16:    Yes
    Compile Mode:   CCS5

Output Files:
    XREF file:   COM_PIC_FM_JP.xsym
    Errors:      COM_PIC_FM_JP.err
    Ext Symbols: COM_PIC_FM_JP.esym
    INHX8:       COM_PIC_FM_JP.hex
    Symbols:     COM_PIC_FM_JP.sym
    List:        COM_PIC_FM_JP.lst
    Debug/COFF:  COM_PIC_FM_JP.cof
    Project:     COM_PIC_FM_JP.ccspjt
    Call Tree:   COM_PIC_FM_JP.tre
    Statistics:  COM_PIC_FM_JP.STA
