Compiling C:\Users\ryuse\OneDrive\デスクトップ\衛星　COM\GMSKTest\GMSKTest 20210818\COM_PIC_FM_JP on 19-8-21 at 17:43
*** Error 100 "C:\Users\ryuse\OneDrive\デスクトップ\衛星　COM\GMSKTest\GMSKTest 20210818\COM_PIC_FM_JP.c" Line 6(5,28): USE parameter value is out of range   Unknown option: OSCILATOR
*** Error 97 "C:\Users\ryuse\OneDrive\デスクトップ\衛星　COM\GMSKTest\GMSKTest 20210818\COM_PIC_FM_JP.h" Line 8(5,102): Must have a #USE DELAY before this #USE
*** Error 97 "C:\Users\ryuse\OneDrive\デスクトップ\衛星　COM\GMSKTest\GMSKTest 20210818\COM_PIC_FM_JP.h" Line 10(5,114): Must have a #USE DELAY before this #USE
*** Error 97 "C:\Users\ryuse\OneDrive\デスクトップ\衛星　COM\GMSKTest\GMSKTest 20210818\COM_PIC_FM_JP.h" Line 11(5,116): Must have a #USE DELAY before this #USE
*** Error 12 "C:\Users\ryuse\OneDrive\デスクトップ\衛星　COM\GMSKTest\GMSKTest 20210818\COM_FLASH.c" Line 13(13,16): Undefined identifier   CFM
*** Error 12 "C:\Users\ryuse\OneDrive\デスクトップ\衛星　COM\GMSKTest\GMSKTest 20210818\COM_FLASH.c" Line 21(13,16): Undefined identifier   SFM
*** Error 12 "C:\Users\ryuse\OneDrive\デスクトップ\衛星　COM\GMSKTest\GMSKTest 20210818\COM_FLASH.c" Line 44(13,16): Undefined identifier   CFM
*** Error 12 "C:\Users\ryuse\OneDrive\デスクトップ\衛星　COM\GMSKTest\GMSKTest 20210818\COM_FLASH.c" Line 45(13,16): Undefined identifier   CFM
*** Error 12 "C:\Users\ryuse\OneDrive\デスクトップ\衛星　COM\GMSKTest\GMSKTest 20210818\COM_FLASH.c" Line 46(13,16): Undefined identifier   CFM
*** Error 12 "C:\Users\ryuse\OneDrive\デスクトップ\衛星　COM\GMSKTest\GMSKTest 20210818\COM_FLASH.c" Line 47(13,16): Undefined identifier   CFM
*** Error 12 "C:\Users\ryuse\OneDrive\デスクトップ\衛星　COM\GMSKTest\GMSKTest 20210818\COM_FLASH.c" Line 48(13,16): Undefined identifier   CFM
*** Error 12 "C:\Users\ryuse\OneDrive\デスクトップ\衛星　COM\GMSKTest\GMSKTest 20210818\COM_FLASH.c" Line 70(13,16): Undefined identifier   SFM
*** Error 12 "C:\Users\ryuse\OneDrive\デスクトップ\衛星　COM\GMSKTest\GMSKTest 20210818\COM_FLASH.c" Line 71(13,16): Undefined identifier   SFM
*** Error 12 "C:\Users\ryuse\OneDrive\デスクトップ\衛星　COM\GMSKTest\GMSKTest 20210818\COM_FLASH.c" Line 72(13,16): Undefined identifier   SFM
*** Error 12 "C:\Users\ryuse\OneDrive\デスクトップ\衛星　COM\GMSKTest\GMSKTest 20210818\COM_FLASH.c" Line 73(13,16): Undefined identifier   SFM
*** Error 12 "C:\Users\ryuse\OneDrive\デスクトップ\衛星　COM\GMSKTest\GMSKTest 20210818\COM_FLASH.c" Line 74(13,16): Undefined identifier   SFM
*** Error 12 "C:\Users\ryuse\OneDrive\デスクトップ\衛星　COM\GMSKTest\GMSKTest 20210818\COM_FLASH.c" Line 102(13,16): Undefined identifier   CFM
*** Error 12 "C:\Users\ryuse\OneDrive\デスクトップ\衛星　COM\GMSKTest\GMSKTest 20210818\COM_FLASH.c" Line 103(13,16): Undefined identifier   CFM
*** Error 12 "C:\Users\ryuse\OneDrive\デスクトップ\衛星　COM\GMSKTest\GMSKTest 20210818\COM_FLASH.c" Line 104(13,16): Undefined identifier   CFM
*** Error 12 "C:\Users\ryuse\OneDrive\デスクトップ\衛星　COM\GMSKTest\GMSKTest 20210818\COM_FLASH.c" Line 105(13,16): Undefined identifier   CFM
*** Error 12 "C:\Users\ryuse\OneDrive\デスクトップ\衛星　COM\GMSKTest\GMSKTest 20210818\COM_FLASH.c" Line 106(13,16): Undefined identifier   CFM
*** Error 12 "C:\Users\ryuse\OneDrive\デスクトップ\衛星　COM\GMSKTest\GMSKTest 20210818\COM_FLASH.c" Line 108(13,16): Undefined identifier   CFM
*** Error 12 "C:\Users\ryuse\OneDrive\デスクトップ\衛星　COM\GMSKTest\GMSKTest 20210818\COM_FLASH.c" Line 132(13,16): Undefined identifier   SFM
*** Error 12 "C:\Users\ryuse\OneDrive\デスクトップ\衛星　COM\GMSKTest\GMSKTest 20210818\COM_FLASH.c" Line 133(13,16): Undefined identifier   SFM
*** Error 12 "C:\Users\ryuse\OneDrive\デスクトップ\衛星　COM\GMSKTest\GMSKTest 20210818\COM_FLASH.c" Line 134(13,16): Undefined identifier   SFM
*** Error 12 "C:\Users\ryuse\OneDrive\デスクトップ\衛星　COM\GMSKTest\GMSKTest 20210818\COM_FLASH.c" Line 135(13,16): Undefined identifier   SFM
*** Error 12 "C:\Users\ryuse\OneDrive\デスクトップ\衛星　COM\GMSKTest\GMSKTest 20210818\COM_FLASH.c" Line 136(13,16): Undefined identifier   SFM
*** Error 12 "C:\Users\ryuse\OneDrive\デスクトップ\衛星　COM\GMSKTest\GMSKTest 20210818\COM_FLASH.c" Line 138(13,16): Undefined identifier   SFM
*** Error 12 "C:\Users\ryuse\OneDrive\デスクトップ\衛星　COM\GMSKTest\GMSKTest 20210818\COM_FLASH.c" Line 164(13,16): Undefined identifier   CFM
*** Error 12 "C:\Users\ryuse\OneDrive\デスクトップ\衛星　COM\GMSKTest\GMSKTest 20210818\COM_FLASH.c" Line 165(13,16): Undefined identifier   CFM
*** Error 12 "C:\Users\ryuse\OneDrive\デスクトップ\衛星　COM\GMSKTest\GMSKTest 20210818\COM_FLASH.c" Line 166(13,16): Undefined identifier   CFM
*** Error 12 "C:\Users\ryuse\OneDrive\デスクトップ\衛星　COM\GMSKTest\GMSKTest 20210818\COM_FLASH.c" Line 167(13,16): Undefined identifier   CFM
*** Error 12 "C:\Users\ryuse\OneDrive\デスクトップ\衛星　COM\GMSKTest\GMSKTest 20210818\COM_FLASH.c" Line 168(13,16): Undefined identifier   CFM
*** Error 12 "C:\Users\ryuse\OneDrive\デスクトップ\衛星　COM\GMSKTest\GMSKTest 20210818\COM_FLASH.c" Line 170(20,23): Undefined identifier   CFM
*** Error 12 "C:\Users\ryuse\OneDrive\デスクトップ\衛星　COM\GMSKTest\GMSKTest 20210818\COM_FLASH.c" Line 191(13,16): Undefined identifier   SFM
*** Error 12 "C:\Users\ryuse\OneDrive\デスクトップ\衛星　COM\GMSKTest\GMSKTest 20210818\COM_FLASH.c" Line 192(13,16): Undefined identifier   SFM
*** Error 12 "C:\Users\ryuse\OneDrive\デスクトップ\衛星　COM\GMSKTest\GMSKTest 20210818\COM_FLASH.c" Line 193(13,16): Undefined identifier   SFM
*** Error 12 "C:\Users\ryuse\OneDrive\デスクトップ\衛星　COM\GMSKTest\GMSKTest 20210818\COM_FLASH.c" Line 194(13,16): Undefined identifier   SFM
*** Error 12 "C:\Users\ryuse\OneDrive\デスクトップ\衛星　COM\GMSKTest\GMSKTest 20210818\COM_FLASH.c" Line 195(13,16): Undefined identifier   SFM
*** Error 12 "C:\Users\ryuse\OneDrive\デスクトップ\衛星　COM\GMSKTest\GMSKTest 20210818\COM_FLASH.c" Line 197(20,23): Undefined identifier   SFM
*** Error 173 "C:\Users\ryuse\OneDrive\デスクトップ\衛星　COM\GMSKTest\GMSKTest 20210818\COM_PIC_FM_JP.h" Line 35(9,14): Functions may not be nested
*** Error 173 "C:\Users\ryuse\OneDrive\デスクトップ\衛星　COM\GMSKTest\GMSKTest 20210818\COM_PIC_FM_JP.h" Line 36(9,14): Functions may not be nested
*** Error 173 "C:\Users\ryuse\OneDrive\デスクトップ\衛星　COM\GMSKTest\GMSKTest 20210818\COM_PIC_FM_JP.h" Line 37(9,14): Functions may not be nested
*** Error 173 "C:\Users\ryuse\OneDrive\デスクトップ\衛星　COM\GMSKTest\GMSKTest 20210818\COM_PIC_FM_JP.h" Line 39(19,32): Functions may not be nested
*** Error 173 "C:\Users\ryuse\OneDrive\デスクトップ\衛星　COM\GMSKTest\GMSKTest 20210818\COM_PIC_FM_JP.h" Line 40(19,32): Functions may not be nested
*** Error 173 "C:\Users\ryuse\OneDrive\デスクトップ\衛星　COM\GMSKTest\GMSKTest 20210818\COM_PIC_FM_JP.h" Line 45(9,20): Functions may not be nested
*** Error 173 "C:\Users\ryuse\OneDrive\デスクトップ\衛星　COM\GMSKTest\GMSKTest 20210818\COM_PIC_FM_JP.h" Line 50(9,24): Functions may not be nested
*** Error 173 "C:\Users\ryuse\OneDrive\デスクトップ\衛星　COM\GMSKTest\GMSKTest 20210818\COM_PIC_FM_JP.h" Line 51(9,24): Functions may not be nested
*** Error 173 "C:\Users\ryuse\OneDrive\デスクトップ\衛星　COM\GMSKTest\GMSKTest 20210818\COM_PIC_FM_JP.h" Line 53(9,24): Functions may not be nested
*** Error 173 "C:\Users\ryuse\OneDrive\デスクトップ\衛星　COM\GMSKTest\GMSKTest 20210818\COM_PIC_FM_JP.h" Line 54(9,24): Functions may not be nested
*** Error 173 "C:\Users\ryuse\OneDrive\デスクトップ\衛星　COM\GMSKTest\GMSKTest 20210818\COM_PIC_FM_JP.h" Line 56(9,22): Functions may not be nested
*** Error 173 "C:\Users\ryuse\OneDrive\デスクトップ\衛星　COM\GMSKTest\GMSKTest 20210818\COM_PIC_FM_JP.h" Line 57(9,22): Functions may not be nested
*** Error 173 "C:\Users\ryuse\OneDrive\デスクトップ\衛星　COM\GMSKTest\GMSKTest 20210818\COM_PIC_FM_JP.h" Line 59(9,21): Functions may not be nested
*** Error 173 "C:\Users\ryuse\OneDrive\デスクトップ\衛星　COM\GMSKTest\GMSKTest 20210818\COM_PIC_FM_JP.h" Line 60(9,21): Functions may not be nested
*** Error 173 "C:\Users\ryuse\OneDrive\デスクトップ\衛星　COM\GMSKTest\GMSKTest 20210818\COM_PIC_FM_JP.h" Line 62(9,19): Functions may not be nested
*** Error 51 "C:\Users\ryuse\OneDrive\デスクトップ\衛星　COM\GMSKTest\GMSKTest 20210818\COM_PIC_FM_JP.c" Line 16(0,1): A numeric expression must appear here
*** Error 173 "C:\Users\ryuse\OneDrive\デスクトップ\衛星　COM\GMSKTest\GMSKTest 20210818\COM_PIC_FM_JP.c" Line 25(6,10): Functions may not be nested
*** Error 51 "C:\Users\ryuse\OneDrive\デスクトップ\衛星　COM\GMSKTest\GMSKTest 20210818\COM_PIC_FM_JP.c" Line 38(14,15): A numeric expression must appear here
*** Error 79 "C:\Users\ryuse\OneDrive\デスクトップ\衛星　COM\GMSKTest\GMSKTest 20210818\COM_PIC_FM_JP.c" Line 43(1,2): Expect }
*** Error 79 "C:\Users\ryuse\OneDrive\デスクトップ\衛星　COM\GMSKTest\GMSKTest 20210818\COM_PIC_FM_JP.c" Line 43(1,2): Expect }
*** Error 79 "C:\Users\ryuse\OneDrive\デスクトップ\衛星　COM\GMSKTest\GMSKTest 20210818\COM_PIC_FM_JP.c" Line 43(1,2): Expect }
